…
# Combine
district_trends <- bind_rows(nyc_trend, other_trends)

district_trends
```

    ## # A tibble: 7,932 × 3
    ##    end_year n_students district_label   
    ##       <int>      <dbl> <chr>            
    ##  1     2023     895097 NYC DOE          
    ##  2     2024     898410 NYC DOE          
    ##  3     2012       8495 ALBANY           
    ##  4     2012        927 BERNE KNOX       
    ##  5     2012       4936 BETHLEHEM        
    ##  6     2012       2036 RAVENA COEYMANS  
    ##  7     2012       1972 COHOES           
    ##  8     2012       5231 SOUTH COLONIE    
    ##  9     2012        256 MENANDS          
    ## 10     2012       5512 NORTH COLONIE CSD
    ## # ℹ 7,922 more rows
…
if (nrow(district_flags) > 0) {
  message("Districts with >5% YoY changes:")
  print(district_flags)
} else {
  message("No major districts had >5% year-over-year changes")
}
```

    ## Districts with >5% YoY changes:

    ## # A tibble: 1,537 × 4
    ##    district_label end_year n_students yoy_pct
    ##    <chr>             <int>      <dbl>   <dbl>
    ##  1 AFTON              2017        513   -5.70
    ##  2 AFTON              2021        481   -7.85
    ##  3 AKRON              2021       1282   -7.50
    ##  4 ALBANY             2016       9625    6.00
    ##  5 ALBANY             2021       8853   -7.28
    ##  6 ALBION             2021       1783   -5.01
    ##  7 ALDEN              2021       1527   -6.43
    ##  8 ALEXANDER          2013        879   -5.89
    ##  9 ALEXANDER          2021        759   -7.66
    ## 10 ALEXANDRIA CSD     2015        574   -7.27
    ## # ℹ 1,527 more rows
…
    ## Warning: Values from `n_students` are not uniquely identified; output will contain
    ## list-cols.
    ## • Use `values_fn = list` to suppress this warning.
    ## • Use `values_fn = {summary_fun}` to summarise duplicates.
    ## • Use the following dplyr code to identify duplicates.
    ##   {data} |>
    ##   dplyr::summarise(n = dplyr::n(), .by = c(district_label, end_year)) |>
    ##   dplyr::filter(n > 1L)

``` r
district_wide
```

    ## # A tibble: 730 × 14
    ##    district_label `2023` `2024` `2012` `2013` `2014` `2015` `2016` `2017` `2018`
    ##    <chr>          <list> <list> <list> <list> <list> <list> <list> <list> <list>
    ##  1 NYC DOE        <dbl>  <dbl>  <NULL> <NULL> <NULL> <NULL> <NULL> <NULL> <NULL>
    ##  2 ALBANY         <NULL> <NULL> <dbl>  <dbl>  <dbl>  <dbl>  <dbl>  <dbl>  <dbl> 
    ##  3 BERNE KNOX     <NULL> <NULL> <dbl>  <dbl>  <dbl>  <dbl>  <dbl>  <dbl>  <dbl> 
    ##  4 BETHLEHEM      <NULL> <NULL> <dbl>  <dbl>  <dbl>  <dbl>  <dbl>  <dbl>  <dbl> 
    ##  5 RAVENA COEYMA… <NULL> <NULL> <dbl>  <dbl>  <dbl>  <dbl>  <dbl>  <dbl>  <dbl> 
    ##  6 COHOES         <NULL> <NULL> <dbl>  <dbl>  <dbl>  <dbl>  <dbl>  <dbl>  <dbl> 
    ##  7 SOUTH COLONIE  <NULL> <NULL> <dbl>  <dbl>  <dbl>  <dbl>  <dbl>  <dbl>  <dbl> 
    ##  8 MENANDS        <NULL> <NULL> <dbl>  <dbl>  <dbl>  <dbl>  <dbl>  <dbl>  <dbl> 
    ##  9 NORTH COLONIE… <NULL> <NULL> <dbl>  <dbl>  <dbl>  <dbl>  <dbl>  <dbl>  <dbl> 
    ## 10 GREEN ISLAND   <NULL> <NULL> <dbl>  <dbl>  <dbl>  <dbl>  <dbl>  <dbl>  <dbl> 
    ## # ℹ 720 more rows
    ## # ℹ 4 more variables: `2019` <list>, `2020` <list>, `2021` <list>,
    ## #   `2022` <list>
…
    ## 
    ## District-level anomalies:

    ## # A tibble: 1,537 × 4
    ##    district_label end_year n_students yoy_pct
    ##    <chr>             <int>      <dbl>   <dbl>
    ##  1 AFTON              2017        513   -5.70
    ##  2 AFTON              2021        481   -7.85
    ##  3 AKRON              2021       1282   -7.50
    ##  4 ALBANY             2016       9625    6.00
    ##  5 ALBANY             2021       8853   -7.28
    ##  6 ALBION             2021       1783   -5.01
    ##  7 ALDEN              2021       1527   -6.43
    ##  8 ALEXANDER          2013        879   -5.89
    ##  9 ALEXANDER          2021        759   -7.66
    ## 10 ALEXANDRIA CSD     2015        574   -7.27
    ## # ℹ 1,527 more rows
…
